{
    "page": 1,
    "per_page": 10,
    "total": 2770,
    "total_pages": 277,
    "data": [{
        "Poster": "images/9.jpg",
        "Title": "airlift",
        "Type": "movie",
        "Year": 1995,
        "imdbID": "tt0114898",
        "url": "https://www.youtube.com/watch?v=KGqDfE0SJLU"
    }, {
        "Poster": "images/0.jpg",
        "Title": "wonder woman",
        "Type": "game",
        "Year": 1995,
        "imdbID": "tt0189200",
        "url": "https://www.youtube.com/watch?v=VSB4wGIdDwo"
    }, {
        "Poster": "images/2.jpg",
        "Title": "civilwar",
        "Type": "movie",
        "Year": 1995,
        "imdbID": "tt2670548"
    }, {
        "Poster": "images/3.jpg",
        "Title": "history of islands",
        "Type": "movie",
        "Year": 1997,
        "imdbID": "tt0161077"
    }, {
        "Poster": "images/4.jpeg",
        "Title": "beauty & beast",
        "Type": "game",
        "Year": 1997,
        "imdbID": "tt0455840"
    }, {
        "Poster": "images/5.jpg",
        "Title": "zootophia",
        "Type": "movie",
        "Year": 1997,
        "imdbID": "tt0390617"
    }, {
        "Poster": "images/6.jpg",
        "Title": "up",
        "Type": "game",
        "Year": 1983,
        "imdbID": "tt2761086"
    }, {
        "Poster": "images/7.jpg",
        "Title": "minions",
        "Type": "movie",
        "Year": 2014,
        "imdbID": "tt5847056"
    }, {
        "Poster": "images/8.jpg",
        "Title": "black hawk down",
        "Type": "movie",
        "Year": 1997,
        "imdbID": "tt0298417"
    }, {
        "Poster": "images/1.jpg",
        "Title": "a nightmare on elm street",
        "Type": "movie",
        "Year": 2001,
        "imdbID": "tt0381702"
    }]
}
